CalculationMode = td
ExperimentalFeatures = yes

Dimensions = 3

%Systems
 "Sun"   | classical_particle
 "Earth" | classical_particle
%

#Initial conditions are taken from https://ssd.jpl.nasa.gov/horizons.cgi#top.
# initial condition at time:
# 2458938.500000000 = A.D. 2020-Mar-30 00:00:00.0000 TDB

Earth.ClassicalParticleMass = 5.97237e24
%Earth.ClassicalParticleInitialPosition
 -147364661998.16476 | -24608859261.610123 | 1665165.2801353487
%
%Earth.ClassicalParticleInitialVelocity
 4431.136612956525 | -29497.611635546345 | 0.343475566161544
%
Earth.TDSystemPropagator = beeman

Sun.ClassicalParticleMass = 1.98855e30
%Sun.ClassicalParticleInitialPosition
 0.0 | 0.0 | 0.0
%
%Sun.ClassicalParticleInitialVelocity
 0.0 | 0.0 | 0.0
%
Sun.TDSystemPropagator = beeman

sampling = 24 # Time-steps per day
days = 3
TDTimeStep = 24*3600/sampling
TDMaxSteps = days*sampling
