# -*- coding: utf-8 mode: shell-script -*-

CalculationMode = gs
fromScratch = no
Radius = 7.0
Spacing = 0.5
%Coordinates
  "Na" | 0 | 0 | 0
%
SpinComponents = spin_polarized
%Occupations
0.0
1.0
%
ConvAbsDens = 1e-6

MaximumIter = 3
MixField = potential
%RestartOptions
 restart_gs | "restart" | restart_vhxc + restart_mix
%

FilterPotentials = filter_none

WorkDir = "./workdir"
StatesPack = yes
LCAOStart = lcao_full
