# -*- coding: utf-8 mode: shell-script -*-

CalculationMode = gs
fromScratch = yes

Radius = 7.0
Spacing = 0.5
%Coordinates
  "Na" | 0 | 0 | 0.0
%
SpinComponents = non_collinear
GuessMagnetDensity = user_defined
%AtomsMagnetDirection
 1 | 1 | 0
%

Eigensolver = rmmdiis

FilterPotentials = filter_none

MixField = density
LCAOStart = lcao_full
