# -*- coding: utf-8 -*-

UnitsOutput = ev_angstrom
ExperimentalFeatures = yes

CalculationMode = gs
FromScratch = yes

BoxShape = sphere
Radius = 4*angstrom
Spacing = 0.25*angstrom

%Coordinates
 "C"  |  0.000*angstrom |  0.000*angstrom |  0.000*angstrom
 "H"  | -1.213*angstrom | -0.852*angstrom |  0.000*angstrom
 "H"  |  0.000*angstrom |  0.852*angstrom | -1.213*angstrom
 "H"  |  0.000*angstrom |  0.852*angstrom |  1.213*angstrom
 "H"  |  1.213*angstrom | -0.852*angstrom |  0.000*angstrom
%

EigenSolver = evolution
EigenSolverTolerance = 1e-5
FilterPotentials = filter_none

MixField = density
Mixing = 1
MixingScheme = linear

TDExponentialMethod = lanczos
TDExpOrder = 100

SCFCalculatePartialCharges = yes

ExperimentalFeatures = yes

StatesPack = yes
LCAOStart = lcao_full
