# -*- coding: utf-8 mode: shell-script -*-

CalculationMode = gs
fromScratch = yes
ConvRelDens = 1e-7
EigensolverTolerance = 1e-8

BoxShape = minimum
Spacing = 0.4
Radius = 6

%Coordinates
  "H"  | 0 | 0 | 0.053910
  "Li" | 0 | 0 | 3.058523
%

StatesPack = yes
LCAOStart = lcao_full
