#Lithium Floride (LiF) simple cubi

CalculationMode = gs
PeriodicDimensions = 3
BoxShape = parallelepiped
ExperimentalFeatures = yes

a = 7.578

PseudopotentialSet = hscv_lda

%LatticeParameters
  a | a | a
%

%LatticeVectors
 0.  | 0.5 | 0.5
 0.5 | 0.  | 0.5
 0.5 | 0.5 | 0.0
%

%ReducedCoordinates
 "Li" | 0.0 | 0.0 | 0.0
 "F"  | 1/4 | 1/4 | 1/4
%

Spacing = 0.4

FromScratch = yes

nk = 2
%KPointsGrid
nk | nk | nk
%
KPointsUseSymmetries = no

ExtraStates = 1

StatesPack = yes

DFTULevel = dft_u_acbn0
UseAllAtomicOrbitals = yes
AOTruncation = ao_full
AOThreshold = 0.05
AONormalize = no
AOSubmeshForPeriodic = yes
OutputLDA_U = occ_matrices + effectiveU + kanamoriU
ACBN0Screening = 0.5
